clustering and PCA
…
#hc1 <- hclust(hier.cluster, method = "complete" )
#pam <- pam(hier.cluster,4, diss = FALSE)
#clusplot(pam, shade = FALSE,labels=2,col.clus="blue",col.p="red",span=FALSE,main="Cluster Mapping",cex=1.2)

#seasonal trend? 
#str(cleaned_STATCOM_data$Timestamp)

cluster_level <- k3$cluster
cluster_data <- cbind(cleaned,cluster_level)

hh <- cluster_data %>% group_by(cluster_level,Agency_Clean_Short) %>%
  summarize(percent = 100*n()/nrow(cluster_data))
hh

## # A tibble: 179 x 3
## # Groups:   cluster_level [3]
##    cluster_level Agency_Clean_Short               percent
##            <int> <chr>                              <dbl>
##  1             1 A Doorway to Hope                 0.377 
##  2             1 Alliance Health                   0.551 
##  3             1 Alliance Medical Ministry         0.0290
##  4             1 Alliance of Disability Advocates  0.116 
##  5             1 Arc of the Triangle               0.0290
##  6             1 Caring Connections Ministry       0.0580
##  7             1 Cary Church of God                0.0290
##  8             1 CASA                              0.842 
##  9             1 Catholic Charities                1.48  
## 10             1 CCWJC                             1.02  
## # ... with 169 more rows
…
